<?xml version="1.0" encoding="utf-8"?>
<!-- Generator: Adobe Illustrator 18.0.0, SVG Export Plug-In . SVG Version: 6.00 Build 0)  -->
<!DOCTYPE svg PUBLIC "-//W3C//DTD SVG 1.1//EN" "http://www.w3.org/Graphics/SVG/1.1/DTD/svg11.dtd">
<svg version="1.1" id="Ebene_1" xmlns="http://www.w3.org/2000/svg" xmlns:xlink="http://www.w3.org/1999/xlink" x="0px" y="0px"
	 viewBox="0 -50 400 300" enable-background="new 0 -50 400 300" xml:space="preserve">
<rect y="-50" fill="#F1F1F1" width="400" height="300"/>
<rect x="140" y="55" fill="none" stroke="#FFFFFF" stroke-width="10" stroke-miterlimit="10" width="120" height="90"/>
<circle fill="#FFFFFF" cx="166.9" cy="79.5" r="9.1"/>
<polygon fill="#FFFFFF" points="245.3,129.8 155.2,129.8 167.2,104.1 174.8,115.3 200.2,76.7 218.4,104 227,94.6 "/>
</svg>
